^C:\USERS\JOEYV\SOURCE\REPOS\PROJECT_1\PROJECT1\PCH.CPP
C:\USERS\JOEYV\SOURCE\REPOS\PROJECT_1\PROJECT1\DEBUG\PROJECT1.PCH
C:\USERS\JOEYV\SOURCE\REPOS\PROJECT_1\PROJECT1\DEBUG\VC143.PDB
C:\USERS\JOEYV\SOURCE\REPOS\PROJECT_1\PROJECT1\DEBUG\VC143.IDB
C:\USERS\JOEYV\SOURCE\REPOS\PROJECT_1\PROJECT1\DEBUG\PCH.OBJ
^C:\USERS\JOEYV\SOURCE\REPOS\PROJECT_1\PROJECT1\CHILDVIEW.CPP|C:\USERS\JOEYV\SOURCE\REPOS\PROJECT_1\PROJECT1\CMYRAYTRACERENDERER.CPP|C:\USERS\JOEYV\SOURCE\REPOS\PROJECT_1\PROJECT1\GRAPHICS\GRCAMERA.CPP|C:\USERS\JOEYV\SOURCE\REPOS\PROJECT_1\PROJECT1\GRAPHICS\GROBJECT.CPP|C:\USERS\JOEYV\SOURCE\REPOS\PROJECT_1\PROJECT1\GRAPHICS\GRRENDERER.CPP|C:\USERS\JOEYV\SOURCE\REPOS\PROJECT_1\PROJECT1\GRAPHICS\GRTEXTURE.CPP|C:\USERS\JOEYV\SOURCE\REPOS\PROJECT_1\PROJECT1\GRAPHICS\GRTRANSFORM.CPP|C:\USERS\JOEYV\SOURCE\REPOS\PROJECT_1\PROJECT1\GRAPHICS\OPENGLRENDERER.CPP|C:\USERS\JOEYV\SOURCE\REPOS\PROJECT_1\PROJECT1\GRAPHICS\OPENGLWND.CPP|C:\USERS\JOEYV\SOURCE\REPOS\PROJECT_1\PROJECT1\MAINFRM.CPP|C:\USERS\JOEYV\SOURCE\REPOS\PROJECT_1\PROJECT1\PROJECT1.CPP
C:\USERS\JOEYV\SOURCE\REPOS\PROJECT_1\PROJECT1\DEBUG\VC143.PDB
C:\USERS\JOEYV\SOURCE\REPOS\PROJECT_1\PROJECT1\DEBUG\VC143.IDB
C:\USERS\JOEYV\SOURCE\REPOS\PROJECT_1\PROJECT1\DEBUG\PROJECT1.OBJ
C:\USERS\JOEYV\SOURCE\REPOS\PROJECT_1\PROJECT1\DEBUG\MAINFRM.OBJ
C:\USERS\JOEYV\SOURCE\REPOS\PROJECT_1\PROJECT1\DEBUG\OPENGLWND.OBJ
C:\USERS\JOEYV\SOURCE\REPOS\PROJECT_1\PROJECT1\DEBUG\OPENGLRENDERER.OBJ
C:\USERS\JOEYV\SOURCE\REPOS\PROJECT_1\PROJECT1\DEBUG\GRTRANSFORM.OBJ
C:\USERS\JOEYV\SOURCE\REPOS\PROJECT_1\PROJECT1\DEBUG\GRTEXTURE.OBJ
C:\USERS\JOEYV\SOURCE\REPOS\PROJECT_1\PROJECT1\DEBUG\GRRENDERER.OBJ
C:\USERS\JOEYV\SOURCE\REPOS\PROJECT_1\PROJECT1\DEBUG\GROBJECT.OBJ
C:\USERS\JOEYV\SOURCE\REPOS\PROJECT_1\PROJECT1\DEBUG\GRCAMERA.OBJ
C:\USERS\JOEYV\SOURCE\REPOS\PROJECT_1\PROJECT1\DEBUG\CMYRAYTRACERENDERER.OBJ
C:\USERS\JOEYV\SOURCE\REPOS\PROJECT_1\PROJECT1\DEBUG\CHILDVIEW.OBJ
^C:\USERS\JOEYV\SOURCE\REPOS\PROJECT_1\PROJECT1\GRAPHICS\GRCAMERA.CPP
C:\USERS\JOEYV\SOURCE\REPOS\PROJECT_1\PROJECT1\DEBUG\VC143.PDB
^C:\USERS\JOEYV\SOURCE\REPOS\PROJECT_1\PROJECT1\GRAPHICS\GRTRANSFORM.CPP
C:\USERS\JOEYV\SOURCE\REPOS\PROJECT_1\PROJECT1\DEBUG\VC143.PDB
^C:\USERS\JOEYV\SOURCE\REPOS\PROJECT_1\PROJECT1\GRAPHICS\OPENGLWND.CPP
C:\USERS\JOEYV\SOURCE\REPOS\PROJECT_1\PROJECT1\DEBUG\VC143.PDB
^C:\USERS\JOEYV\SOURCE\REPOS\PROJECT_1\PROJECT1\CHILDVIEW.CPP|C:\USERS\JOEYV\SOURCE\REPOS\PROJECT_1\PROJECT1\CMYRAYTRACERENDERER.CPP|C:\USERS\JOEYV\SOURCE\REPOS\PROJECT_1\PROJECT1\GRAPHICS\GROBJECT.CPP|C:\USERS\JOEYV\SOURCE\REPOS\PROJECT_1\PROJECT1\MAINFRM.CPP|C:\USERS\JOEYV\SOURCE\REPOS\PROJECT_1\PROJECT1\PROJECT1.CPP
C:\USERS\JOEYV\SOURCE\REPOS\PROJECT_1\PROJECT1\DEBUG\VC143.PDB
C:\USERS\JOEYV\SOURCE\REPOS\PROJECT_1\PROJECT1\DEBUG\VC143.IDB
C:\USERS\JOEYV\SOURCE\REPOS\PROJECT_1\PROJECT1\DEBUG\GROBJECT.OBJ
C:\USERS\JOEYV\SOURCE\REPOS\PROJECT_1\PROJECT1\DEBUG\PROJECT1.OBJ
C:\USERS\JOEYV\SOURCE\REPOS\PROJECT_1\PROJECT1\DEBUG\MAINFRM.OBJ
C:\USERS\JOEYV\SOURCE\REPOS\PROJECT_1\PROJECT1\DEBUG\CHILDVIEW.OBJ
C:\USERS\JOEYV\SOURCE\REPOS\PROJECT_1\PROJECT1\DEBUG\CMYRAYTRACERENDERER.OBJ
^C:\USERS\JOEYV\SOURCE\REPOS\PROJECT_1\PROJECT1\CHILDVIEW.CPP|C:\USERS\JOEYV\SOURCE\REPOS\PROJECT_1\PROJECT1\GRAPHICS\GROBJECT.CPP|C:\USERS\JOEYV\SOURCE\REPOS\PROJECT_1\PROJECT1\MAINFRM.CPP|C:\USERS\JOEYV\SOURCE\REPOS\PROJECT_1\PROJECT1\PROJECT1.CPP
C:\USERS\JOEYV\SOURCE\REPOS\PROJECT_1\PROJECT1\DEBUG\VC143.PDB
C:\USERS\JOEYV\SOURCE\REPOS\PROJECT_1\PROJECT1\DEBUG\VC143.IDB
C:\USERS\JOEYV\SOURCE\REPOS\PROJECT_1\PROJECT1\DEBUG\PROJECT1.OBJ
C:\USERS\JOEYV\SOURCE\REPOS\PROJECT_1\PROJECT1\DEBUG\MAINFRM.OBJ
^C:\USERS\JOEYV\SOURCE\REPOS\PROJECT_1\PROJECT1\CHILDVIEW.CPP|C:\USERS\JOEYV\SOURCE\REPOS\PROJECT_1\PROJECT1\CMYRAYTRACERENDERER.CPP|C:\USERS\JOEYV\SOURCE\REPOS\PROJECT_1\PROJECT1\GRAPHICS\GROBJECT.CPP|C:\USERS\JOEYV\SOURCE\REPOS\PROJECT_1\PROJECT1\GRAPHICS\GRRENDERER.CPP|C:\USERS\JOEYV\SOURCE\REPOS\PROJECT_1\PROJECT1\GRAPHICS\GRTEXTURE.CPP|C:\USERS\JOEYV\SOURCE\REPOS\PROJECT_1\PROJECT1\GRAPHICS\OPENGLRENDERER.CPP|C:\USERS\JOEYV\SOURCE\REPOS\PROJECT_1\PROJECT1\MAINFRM.CPP|C:\USERS\JOEYV\SOURCE\REPOS\PROJECT_1\PROJECT1\PROJECT1.CPP
C:\USERS\JOEYV\SOURCE\REPOS\PROJECT_1\PROJECT1\DEBUG\VC143.PDB
C:\USERS\JOEYV\SOURCE\REPOS\PROJECT_1\PROJECT1\DEBUG\VC143.IDB
C:\USERS\JOEYV\SOURCE\REPOS\PROJECT_1\PROJECT1\DEBUG\PROJECT1.OBJ
C:\USERS\JOEYV\SOURCE\REPOS\PROJECT_1\PROJECT1\DEBUG\MAINFRM.OBJ
C:\USERS\JOEYV\SOURCE\REPOS\PROJECT_1\PROJECT1\DEBUG\OPENGLRENDERER.OBJ
C:\USERS\JOEYV\SOURCE\REPOS\PROJECT_1\PROJECT1\DEBUG\GRTEXTURE.OBJ
C:\USERS\JOEYV\SOURCE\REPOS\PROJECT_1\PROJECT1\DEBUG\GRRENDERER.OBJ
C:\USERS\JOEYV\SOURCE\REPOS\PROJECT_1\PROJECT1\DEBUG\GROBJECT.OBJ
C:\USERS\JOEYV\SOURCE\REPOS\PROJECT_1\PROJECT1\DEBUG\CMYRAYTRACERENDERER.OBJ
^C:\USERS\JOEYV\SOURCE\REPOS\PROJECT_1\PROJECT1\GRAPHICS\GRRENDERER.CPP
C:\USERS\JOEYV\SOURCE\REPOS\PROJECT_1\PROJECT1\DEBUG\GRRENDERER.OBJ
^C:\USERS\JOEYV\SOURCE\REPOS\PROJECT_1\PROJECT1\GRAPHICS\GRTEXTURE.CPP
C:\USERS\JOEYV\SOURCE\REPOS\PROJECT_1\PROJECT1\DEBUG\GRTEXTURE.OBJ
^C:\USERS\JOEYV\SOURCE\REPOS\PROJECT_1\PROJECT1\GRAPHICS\OPENGLRENDERER.CPP
C:\USERS\JOEYV\SOURCE\REPOS\PROJECT_1\PROJECT1\DEBUG\OPENGLRENDERER.OBJ
^C:\USERS\JOEYV\SOURCE\REPOS\PROJECT_1\PROJECT1\MAINFRM.CPP
C:\USERS\JOEYV\SOURCE\REPOS\PROJECT_1\PROJECT1\DEBUG\MAINFRM.OBJ
^C:\USERS\JOEYV\SOURCE\REPOS\PROJECT_1\PROJECT1\CHILDVIEW.CPP|C:\USERS\JOEYV\SOURCE\REPOS\PROJECT_1\PROJECT1\PROJECT1.CPP
C:\USERS\JOEYV\SOURCE\REPOS\PROJECT_1\PROJECT1\DEBUG\VC143.PDB
C:\USERS\JOEYV\SOURCE\REPOS\PROJECT_1\PROJECT1\DEBUG\VC143.IDB
C:\USERS\JOEYV\SOURCE\REPOS\PROJECT_1\PROJECT1\DEBUG\PROJECT1.OBJ
C:\USERS\JOEYV\SOURCE\REPOS\PROJECT_1\PROJECT1\DEBUG\CHILDVIEW.OBJ
^C:\USERS\JOEYV\SOURCE\REPOS\PROJECT_1\PROJECT1\PROJECT1.CPP
C:\USERS\JOEYV\SOURCE\REPOS\PROJECT_1\PROJECT1\DEBUG\VC143.PDB
^C:\USERS\JOEYV\SOURCE\REPOS\PROJECT_1\PROJECT1\CHILDVIEW.CPP|C:\USERS\JOEYV\SOURCE\REPOS\PROJECT_1\PROJECT1\CMYRAYTRACERENDERER.CPP|C:\USERS\JOEYV\SOURCE\REPOS\PROJECT_1\PROJECT1\GRAPHICS\GROBJECT.CPP
C:\USERS\JOEYV\SOURCE\REPOS\PROJECT_1\PROJECT1\DEBUG\VC143.PDB
C:\USERS\JOEYV\SOURCE\REPOS\PROJECT_1\PROJECT1\DEBUG\VC143.IDB
C:\USERS\JOEYV\SOURCE\REPOS\PROJECT_1\PROJECT1\DEBUG\CHILDVIEW.OBJ
C:\USERS\JOEYV\SOURCE\REPOS\PROJECT_1\PROJECT1\DEBUG\CMYRAYTRACERENDERER.OBJ
^C:\USERS\JOEYV\SOURCE\REPOS\PROJECT_1\PROJECT1\CHILDVIEW.CPP|C:\USERS\JOEYV\SOURCE\REPOS\PROJECT_1\PROJECT1\GRAPHICS\GROBJECT.CPP
C:\USERS\JOEYV\SOURCE\REPOS\PROJECT_1\PROJECT1\DEBUG\VC143.PDB
C:\USERS\JOEYV\SOURCE\REPOS\PROJECT_1\PROJECT1\DEBUG\VC143.IDB
C:\USERS\JOEYV\SOURCE\REPOS\PROJECT_1\PROJECT1\DEBUG\GROBJECT.OBJ
C:\USERS\JOEYV\SOURCE\REPOS\PROJECT_1\PROJECT1\DEBUG\CHILDVIEW.OBJ
^C:\USERS\JOEYV\SOURCE\REPOS\PROJECT_1\PROJECT1\GRAPHICS\GROBJECT.CPP
C:\USERS\JOEYV\SOURCE\REPOS\PROJECT_1\PROJECT1\DEBUG\VC143.PDB
^C:\USERS\JOEYV\SOURCE\REPOS\PROJECT_1\PROJECT1\CHILDVIEW.CPP|C:\USERS\JOEYV\SOURCE\REPOS\PROJECT_1\PROJECT1\CMYRAYTRACERENDERER.CPP
C:\USERS\JOEYV\SOURCE\REPOS\PROJECT_1\PROJECT1\DEBUG\VC143.PDB
C:\USERS\JOEYV\SOURCE\REPOS\PROJECT_1\PROJECT1\DEBUG\VC143.IDB
C:\USERS\JOEYV\SOURCE\REPOS\PROJECT_1\PROJECT1\DEBUG\CHILDVIEW.OBJ
C:\USERS\JOEYV\SOURCE\REPOS\PROJECT_1\PROJECT1\DEBUG\CMYRAYTRACERENDERER.OBJ
^C:\USERS\JOEYV\SOURCE\REPOS\PROJECT_1\PROJECT1\CMYRAYTRACERENDERER.CPP
C:\USERS\JOEYV\SOURCE\REPOS\PROJECT_1\PROJECT1\DEBUG\VC143.PDB
C:\USERS\JOEYV\SOURCE\REPOS\PROJECT_1\PROJECT1\DEBUG\VC143.IDB
C:\USERS\JOEYV\SOURCE\REPOS\PROJECT_1\PROJECT1\DEBUG\CMYRAYTRACERENDERER.OBJ
^C:\USERS\JOEYV\SOURCE\REPOS\PROJECT_1\PROJECT1\CHILDVIEW.CPP
C:\USERS\JOEYV\SOURCE\REPOS\PROJECT_1\PROJECT1\DEBUG\VC143.PDB
C:\USERS\JOEYV\SOURCE\REPOS\PROJECT_1\PROJECT1\DEBUG\VC143.IDB
C:\USERS\JOEYV\SOURCE\REPOS\PROJECT_1\PROJECT1\DEBUG\CHILDVIEW.OBJ
